\relax 
\providecommand\hyper@newdestlabel[2]{}
\providecommand\HyperFirstAtBeginDocument{\AtBeginDocument}
\HyperFirstAtBeginDocument{\ifx\hyper@anchor\@undefined
\global\let\oldcontentsline\contentsline
\gdef\contentsline#1#2#3#4{\oldcontentsline{#1}{#2}{#3}}
\global\let\oldnewlabel\newlabel
\gdef\newlabel#1#2{\newlabelxx{#1}#2}
\gdef\newlabelxx#1#2#3#4#5#6{\oldnewlabel{#1}{{#2}{#3}}}
\AtEndDocument{\ifx\hyper@anchor\@undefined
\let\contentsline\oldcontentsline
\let\newlabel\oldnewlabel
\fi}
\fi}
\global\let\hyper@last\relax 
\gdef\HyperFirstAtBeginDocument#1{#1}
\providecommand*\HyPL@Entry[1]{}
\citation{angus2000}
\citation{icu-mortality}
\citation{icu-evidence}
\citation{bigdata-promise}
\citation{bigdata-mining}
\citation{mimic-nature}
\citation{cdm-review}
\citation{data-enclave}
\citation{kahn-data-2012}
\citation{cdm-comparison}
\citation{omop-replicability}
\citation{fhir-deep}
\citation{imi-protect}
\HyPL@Entry{0<</S/D>>}
\citation{omop-german}
\citation{omop-nashville}
\citation{omop-bigboy}
\citation{closure-table}
\citation{omop-eval}
\citation{omop-concept-impact}
\citation{omop-replicability}
\citation{mimic-omop-previous}
\citation{cdm-review}
\citation{omop-vs-pcornet}
\citation{mimic-i2b2}
\citation{FHIR-doc}
\citation{mimic-omop-website}
\citation{mimic-nature}
\citation{universal-archive}
\citation{mimic-schemaspy}
\citation{omop-schemaspy}
\citation{mimic-omop-achilles}
\citation{mimic-omop-github}
\citation{ohdsi-athena}
\citation{omop-documentation}
\citation{schema-matching}
\citation{usagi}
\citation{section-extraction}
\citation{mimic-omop-datathon}
\citation{moody-quality}
\citation{kahn-data-2012}
\citation{omop-vs-pcornet}
\citation{kahn-quality}
\citation{moody-quality}
\citation{kahn-quality}
\citation{mimic-omop-github}
\citation{icustays-doc}
\@writefile{lot}{\contentsline {table}{\numberline {1}{\ignorespaces Transformation Quality Evaluation Metrics}}{5}{table.0.1}}
\newlabel{table:quality}{{1}{5}{Transformation Quality Evaluation Metrics}{table.0.1}{}}
\newlabel{lst:original}{{1}{5}{Original table microbiology SQL query}{lstlisting.0.1}{}}
\@writefile{lol}{\contentsline {lstlisting}{\numberline {1}Original table microbiology SQL query}{5}{lstlisting.0.1}}
\citation{omop-nashville}
\citation{mimic-omop-website}
\citation{achilles-evaluation}
\citation{ohdsi-achilles}
\citation{ohdsi-achilles}
\citation{achilles-evaluation}
\@writefile{lot}{\contentsline {table}{\numberline {2}{\ignorespaces MIMIC to OMOP data flows}}{6}{table.0.2}}
\newlabel{table:dispatch}{{2}{6}{MIMIC to OMOP data flows}{table.0.2}{}}
\citation{snomed-icd9}
\citation{omop-vs-pcornet}
\@writefile{lot}{\contentsline {table}{\numberline {3}{\ignorespaces Baseline characteristics MIMIC versus OMOP}}{7}{table.0.3}}
\newlabel{table:statistics}{{3}{7}{Baseline characteristics MIMIC versus OMOP}{table.0.3}{}}
\@writefile{lot}{\contentsline {table}{\numberline {4}{\ignorespaces Data lost}}{7}{table.0.4}}
\newlabel{table:datalost}{{4}{7}{Data lost}{table.0.4}{}}
\citation{loinc-website}
\citation{closure-table}
\@writefile{lot}{\contentsline {table}{\numberline {5}{\ignorespaces Terminology Mapping coverage}}{8}{table.0.5}}
\newlabel{table:mapping}{{5}{8}{Terminology Mapping coverage}{table.0.5}{}}
\newlabel{lst:optimized}{{2}{8}{Optimized and denormalized microbiology table SQL query}{lstlisting.0.2}{}}
\@writefile{lol}{\contentsline {lstlisting}{\numberline {2}Optimized and denormalized microbiology table SQL query}{8}{lstlisting.0.2}}
\citation{mimic-git}
\citation{johnson-reprod}
\citation{gatech}
\citation{mimic-omop-github}
\bibdata{aes2e.bib}
\bibcite{angus2000}{1}
\bibcite{icu-mortality}{2}
\bibcite{icu-evidence}{3}
\bibcite{bigdata-promise}{4}
\bibcite{bigdata-mining}{5}
\bibcite{mimic-nature}{6}
\bibcite{cdm-review}{7}
\bibcite{data-enclave}{8}
\bibcite{kahn-data-2012}{9}
\bibcite{cdm-comparison}{10}
\bibcite{omop-replicability}{11}
\bibcite{fhir-deep}{12}
\bibcite{imi-protect}{13}
\bibcite{omop-german}{14}
\bibcite{omop-nashville}{15}
\bibcite{omop-bigboy}{16}
\bibcite{closure-table}{17}
\bibcite{omop-eval}{18}
\bibcite{omop-concept-impact}{19}
\bibcite{mimic-omop-previous}{20}
\bibcite{omop-vs-pcornet}{21}
\bibcite{mimic-i2b2}{22}
\bibcite{FHIR-doc}{23}
\bibcite{mimic-omop-website}{24}
\bibcite{universal-archive}{25}
\bibcite{mimic-schemaspy}{26}
\bibcite{omop-schemaspy}{27}
\bibcite{mimic-omop-github}{28}
\bibcite{ohdsi-athena}{29}
\bibcite{omop-documentation}{30}
\bibcite{schema-matching}{31}
\bibcite{usagi}{32}
\bibcite{section-extraction}{33}
\bibcite{mimic-omop-datathon}{34}
\bibcite{moody-quality}{35}
\bibcite{kahn-quality}{36}
\bibcite{icustays-doc}{37}
\bibcite{achilles-evaluation}{38}
\bibcite{ohdsi-achilles}{39}
\bibcite{snomed-icd9}{40}
\bibcite{loinc-website}{41}
\bibcite{mimic-git}{42}
\bibcite{johnson-reprod}{43}
\bibcite{gatech}{44}
\bibstyle{aes2e.bst}
